﻿"datelastorder","dateregister","payer_email","first_name","last_name","address_name","address_street","address_city","address_zip","address_state","address_country","address_country_code"
"2012/12/17","2013/08/13","buyer@demomail.com","Ann","It is only a demonstration of a customer comment","Ann Shepard","Any, its a demo","Any, its a demo","02001","Any, its a demo","Australia","AU"
"2012/12/17","2013/09/13","buyer@demomail.com","Ann","It is only a demonstration of a customer comment","Ann Shepard","Any, its a demo","Any, its a demo","12354","Any, its a demo","Australia","AU"
"2013/09/16","2013/12/14","buyer@demomail.com","Ian","It is only a demonstration of a customer comment","Ian Helton","Any, its a demo","Any, its a demo","02001","Any, its a demo","Australia","AU"
"2012/12/17","2013/07/17","buyer@demomail.com","Ian","It is only a demonstration of a customer comment","Ian Helton","Any, its a demo","Any, its a demo","02001","Any, its a demo","Australia","AU"
"2013/09/16","2013/08/13","buyer@demomail.com","Ian","It is only a demonstration of a customer comment","Ian Helton","Any, its a demo","Any, its a demo","02001","Any, its a demo","Australia","AU"
"2013/09/16","2013/09/13","buyer@demomail.com","Jeremy","It is only a demonstration of a customer comment","Jeremy Frank","Any, its a demo","Any, its a demo","12354","Any, its a demo","UK","UK"
"2013/09/16","2013/06/15","buyer@demomail.com","John","It is only a demonstration of a customer comment","John Snow","Any, its a demo","Any, its a demo","12354","Any, its a demo","UK","UK"
"2012/12/17","2013/05/16","buyer@demomail.com","Jeremy","It is only a demonstration of a customer comment","Jeremy Frank","Any, its a demo","Any, its a demo","12354","Any, its a demo","UK","UK"
"2013/09/16","2013/05/13","buyer@demomail.com","Jeremy","It is only a demonstration of a customer comment","Jeremy Frank","Any, its a demo","Any, its a demo","02001","Any, its a demo","UK","UK"
"2013/09/16","2013/04/15","buyer@demomail.com","Ian","It is only a demonstration of a customer comment","Ian Helton","Any, its a demo","Any, its a demo","02001","Any, its a demo","UK","UK"
"2013/09/16","2013/03/18","buyer@demomail.com","Jeremy","It is only a demonstration of a customer comment","Jeremy Frank","Any, its a demo","Any, its a demo","12354","Any, its a demo","UK","UK"
"2013/09/16","2013/10/16","buyer@demomail.com","Paul","It is only a demonstration of a customer comment","Paul Brooks","Any, its a demo","Any, its a demo","12354","Any, its a demo","United States","US"
"2012/12/17","2013/11/19","buyer@demomail.com","Paul","It is only a demonstration of a customer comment","Paul Brooks","Any, its a demo","Any, its a demo","02001","Any, its a demo","United States","US"
"2013/09/16","2013/05/20","buyer@demomail.com","John","It is only a demonstration of a customer comment","John Snow","Any, its a demo","Any, its a demo","95131","Any, its a demo","United States","US"
"2013/09/15","2013/02/15","buyer@demomail.com","Jeremy","It is only a demonstration of a customer comment","Jeremy Smith","Any, its a demo","Any, its a demo","12354","Any, its a demo","United States","US"
"2013/09/15","2013/01/15","buyer@demomail.com","John","It is only a demonstration of a customer comment","John Snow","Any, its a demo","Any, its a demo","12354","Any, its a demo","United States","US"
